﻿	{
	  "Description" : "P3", 
      "sType" : "Animated",
	  "SpriteMaps" : 
	  [
		{
            "SpriteMapName" : "Sprites/Players/P3Color",
            "Columns" : 4, 
            "Rows" : 4
		}
	  ],
	  "AnimationSequences" : 
	  [
		{	
			"AnimationName" : "Color",
			"AnimationTime" : 1,
			"AnimationLoop" : 0,
			"AnimationFrames" : 
			[
				{	
					"weight" : 1,				
					"map" : 0,
					"row" : 0,
					"column" : 0
				}
			]
		}
	  ]	  

	}